<svg xmlns="http://www.w3.org/2000/svg" width="43.016" height="43.016" viewBox="0 0 43.016 43.016">
  <g id="Group_1251"  transform="translate(613.495 -483.492)">
    <path id="Path_5731" d="M48.5,31.167l-2.567,2.567L42.9,30.7a.594.594,0,1,0-.84.84L45.1,34.574l-2.147,2.147-3.034-3.034a.594.594,0,0,0-.84.84l3.034,3.034-2.147,2.147-3.034-3.034a.594.594,0,1,0-.84.84l3.034,3.034L36.974,42.7,33.94,39.663a.594.594,0,0,0-.84.84l3.034,3.034L33.567,46.1a.594.594,0,0,0,.84.84l2.567-2.567,3.034,3.034a.594.594,0,0,0,.84-.84l-3.034-3.034,2.147-2.147L43,44.424a.594.594,0,0,0,.84-.84L40.8,40.549,42.949,38.4l3.034,3.034a.594.594,0,0,0,.84-.84L43.79,37.562l2.147-2.147,3.034,3.034a.594.594,0,0,0,.84-.84l-3.034-3.034,2.567-2.567a.594.594,0,0,0-.84-.84Z" transform="translate(-632.883 465.384)" fill="#fff" stroke="#fff" stroke-width="1"/>
    <path id="Path_5732"  d="M41.744,5.053a34.775,34.775,0,0,0-36.69,36.69,5.477,5.477,0,0,0,5.228,5.228,34.775,34.775,0,0,0,36.69-36.69A5.477,5.477,0,0,0,41.744,5.053ZM10.328,45.8A4.274,4.274,0,0,1,6.22,41.7a37.084,37.084,0,0,1,.513-8.076,14.449,14.449,0,0,1,7.7,3.968,14.128,14.128,0,0,1,3.968,7.7A37.084,37.084,0,0,1,10.328,45.8ZM36,36a32.772,32.772,0,0,1-16.431,9.056,15.722,15.722,0,0,0-4.295-8.309,15.271,15.271,0,0,0-8.262-4.295A32.891,32.891,0,0,1,16.07,15.976,32.709,32.709,0,0,1,32.454,6.967a15.722,15.722,0,0,0,4.295,8.309,15.271,15.271,0,0,0,8.262,4.295A32.3,32.3,0,0,1,36,36Zm9.8-25.674a37.084,37.084,0,0,1-.513,8.076,14.449,14.449,0,0,1-7.7-3.968,14.128,14.128,0,0,1-3.968-7.7A34.359,34.359,0,0,1,41.7,6.22,4.274,4.274,0,0,1,45.8,10.328Z" transform="translate(-618 478.987)" fill="#fff" stroke="#fff" stroke-width="1"/>
  </g>
</svg>
