<svg xmlns="http://www.w3.org/2000/svg" width="25" height="25" viewBox="0 0 25 25">
  <path id="noun_Arrow_3134094" d="M19.009,2.5H9.991A7.488,7.488,0,0,0,2.5,9.991v9.019A7.488,7.488,0,0,0,9.991,26.5h9.019A7.488,7.488,0,0,0,26.5,19.009V9.991A7.488,7.488,0,0,0,19.009,2.5Z" transform="translate(-2 -2)" fill="#101618" stroke="#92683c" stroke-width="1"/>
</svg>
