<svg xmlns="http://www.w3.org/2000/svg" width="19.463" height="20" viewBox="0 0 19.463 20">
  <g id="Group_1236" data-name="Group 1236" transform="translate(0.193 0.333)">
    <path id="Path_6324" data-name="Path 6324" d="M15.705,7A6.068,6.068,0,0,0,3.758,7,4.86,4.86,0,0,0,4.866,16.6H8.515V11.731H6.082L9.731,6.866l3.649,4.866H10.948V16.6H14.6A4.86,4.86,0,0,0,15.705,7Z" transform="translate(-0.193 0.196)" fill="#fff"/>
    <rect id="Rectangle_3473" data-name="Rectangle 3473" width="19.31" height="20" transform="translate(-0.117 -0.333)" fill="none"/>
  </g>
</svg>
