<svg xmlns="http://www.w3.org/2000/svg" width="16" height="13.683" viewBox="0 0 16 13.683">
  <g id="Group_749" data-name="Group 749" transform="translate(-34 -36.317)">
    <path id="Path_974" data-name="Path 974" d="M54.97,46.129H57a.625.625,0,0,0,0-1.25H54.97a.625.625,0,1,0,0,1.25Z" transform="translate(-10.173 -4.281)" fill="#fff"/>
    <path id="Path_975" data-name="Path 975" d="M54.97,51.225H57a.625.625,0,0,0,0-1.25H54.97a.625.625,0,0,0,0,1.25Z" transform="translate(-10.173 -6.829)" fill="#fff"/>
    <path id="Path_976" data-name="Path 976" d="M49.375,38.05h-6.75V36.942a.625.625,0,0,0-1.25,0V38.05h-6.75a.625.625,0,0,0-.625.625v10.7a.625.625,0,0,0,.625.625h14.75A.625.625,0,0,0,50,49.375v-10.7A.625.625,0,0,0,49.375,38.05Zm-10.17,5.936A1.131,1.131,0,1,1,40.336,45.1,1.126,1.126,0,0,1,39.205,43.986Zm1.131,2.368a2.53,2.53,0,0,1,2.53,2.4h-5.06A2.53,2.53,0,0,1,40.336,46.354Zm8.414,2.4H44.122a3.77,3.77,0,0,0-2.009-3.2,2.344,2.344,0,0,0,.6-1.56,2.381,2.381,0,0,0-4.762,0,2.341,2.341,0,0,0,.6,1.56,3.769,3.769,0,0,0-2.009,3.2h-1.3V39.3h13.5Z" fill="#fff"/>
  </g>
</svg>
