<svg xmlns="http://www.w3.org/2000/svg" width="15" height="10" viewBox="0 0 15 10">
  <g id="Group_646" data-name="Group 646" transform="translate(0.207 -1.525)">
    <g id="Group_593" data-name="Group 593" transform="translate(-5.207 -970.837)">
      <path id="Path_935" data-name="Path 935" d="M5.667,972.362a.676.676,0,0,0-.667.667V981.7a.677.677,0,0,0,.667.667H19.333A.677.677,0,0,0,20,981.7v-8.667a.676.676,0,0,0-.667-.667H5.667Zm.99,1H18.344l-5.844,5.01ZM6,974.107l3.516,3.016L6,980.638v-6.531Zm13,0v6.531l-3.516-3.516Zm-8.724,3.672,1.9,1.625a.5.5,0,0,0,.646,0l1.9-1.625,3.583,3.583H6.693Z" fill="#92683c"/>
    </g>
  </g>
</svg>
