<svg xmlns="http://www.w3.org/2000/svg" width="46" height="46" viewBox="0 0 46 46">
  <g id="noun_exclamation_3076273" transform="translate(-1 -1)">
    <g id="Layer_65" data-name="Layer 65" transform="translate(1 1)">
      <path id="Path_6347" data-name="Path 6347" d="M24,47A23,23,0,1,1,47,24,23,23,0,0,1,24,47ZM24,4.067A19.933,19.933,0,1,0,43.933,24,19.933,19.933,0,0,0,24,4.067Z" transform="translate(-1 -1)" fill="#fff"/>
      <circle id="Ellipse_1167" data-name="Ellipse 1167" cx="1.533" cy="1.533" r="1.533" transform="translate(21.467 33.733)" fill="#fff"/>
      <path id="Path_6348" data-name="Path 6348" d="M17.067,8A3.067,3.067,0,0,0,14,11.067l1.533,16.867a1.533,1.533,0,0,0,3.067,0l1.533-16.867A3.067,3.067,0,0,0,17.067,8Z" transform="translate(5.933 2.733)" fill="#fff"/>
    </g>
  </g>
</svg>
