<svg xmlns="http://www.w3.org/2000/svg" width="16.288" height="16" viewBox="0 0 16.288 16">
  <g id="Group_748" data-name="Group 748" transform="translate(-1.82 -2)">
    <path id="Path_973" data-name="Path 973" d="M13.164,6.8V6h3.2V2h-4.8V6.8h-3.2V2h-4.8V6h3.2v.8H1.82L3.684,18h12.56L18.108,6.8Zm1.6-2.4h-1.6V3.6h1.6Zm-9.6,0V3.6h1.6v.8Zm3.2,12v-.8a1.6,1.6,0,0,1,3.2,0v.8Zm6.52,0h-1.72v-.8a3.2,3.2,0,0,0-6.4,0v.8H5.044l-1.336-8H16.22Zm-7.32-5.6h-1.6V9.2h1.6Zm6.4,0h-1.6V9.2h1.6Zm-3.2,0h-1.6V9.2h1.6Z" transform="translate(0)" fill="#fff"/>
  </g>
</svg>
