<svg xmlns="http://www.w3.org/2000/svg" width="20" height="20" viewBox="0 0 20 20">
  <g id="noun_add_1052480" transform="translate(944.5 -893.5)">
    <g id="Group_405" data-name="Group 405" transform="translate(-944.5 893.5)">
      <path id="Path_866" data-name="Path 866" d="M-926.5,964.784v-2.568h-8.716V953.5h-2.568v8.716H-946.5v2.568h8.716V973.5h2.568v-8.716Z" transform="translate(946.5 -953.5)" fill="#fff"/>
    </g>
  </g>
</svg>
