<svg xmlns="http://www.w3.org/2000/svg" width="100" height="100" viewBox="0 0 100 100">
  <g id="Group_844" data-name="Group 844" transform="translate(-79 -418)">
    <circle id="Ellipse_171" data-name="Ellipse 171" cx="50" cy="50" r="50" transform="translate(79 418)" fill="#3f4a40"/>
    <g id="noun_Check_Mark_2946214" data-name="noun_Check Mark_2946214" transform="translate(59.34 358.566)">
      <path id="Path_989" data-name="Path 989" d="M99.172,81.434a5.531,5.531,0,0,0-4.242,1.931L60,122.97,44.124,106.91a5.531,5.531,0,1,0-7.866,7.777L56.3,134.958a5.531,5.531,0,0,0,8.08-.231l38.843-44.046a5.531,5.531,0,0,0-4.054-9.247Z" transform="translate(0 0)" fill="#fff"/>
    </g>
  </g>
</svg>
