<svg xmlns="http://www.w3.org/2000/svg" width="18.45" height="16" viewBox="0 0 18.45 16">
  <g id="_13" data-name="13" transform="translate(0 -17)">
    <path id="Path_17" data-name="Path 17" d="M26.467,27.3a.289.289,0,0,1,.577,0V28h3.1l.077-.737a.288.288,0,0,1,.573.059L30.723,28h2.891l.149-.788a.432.432,0,1,1,.849.159l-.825,4.358A1.6,1.6,0,0,1,32.24,33H21.272a1.6,1.6,0,0,1-1.547-1.266L18.9,27.376a.432.432,0,1,1,.849-.159L19.9,28h2.891l-.071-.679a.288.288,0,0,1,.573-.059l.077.737h3.1V27.3ZM33.5,28.582H30.663L30.5,30.1h2.713l.287-1.516Zm-.4,2.094H30.444a2.282,2.282,0,0,1-.434,1.458h2.259a.733.733,0,0,0,.669-.56l.17-.9ZM21.242,32.134H23.5a2.281,2.281,0,0,1-.434-1.458H20.4l.17.9a.73.73,0,0,0,.669.56ZM20.294,30.1h2.713l-.158-1.516H20.006l.287,1.516Zm9.79-1.516H27.044V30.1h2.881l.158-1.516Zm-.219,2.094H27.044v1.458h1.645a1.075,1.075,0,0,0,1.12-.92l.056-.538Zm-5.044,1.458h1.646V30.675H23.645l.056.538a1.074,1.074,0,0,0,1.12.92ZM23.585,30.1h2.882V28.582h-3.04l.158,1.516Zm2.03-12.947a.432.432,0,0,1,.649.569l-3.028,3.466a.432.432,0,0,1-.649-.569l3.028-3.466Zm1.631.569a.432.432,0,0,1,.649-.569l3.028,3.466a.432.432,0,0,1-.649.569l-3.028-3.466Z" transform="translate(-17.531)" fill="#fff"/>
    <path id="Path_18" data-name="Path 18" d="M2.947,99.126a.774.774,0,1,0-.824-.718.773.773,0,0,0,.824.718Zm12.555,0a.774.774,0,1,1,.824-.718.773.773,0,0,1-.824.718Zm2.525-2.563a.433.433,0,0,1,0,.866l-.216.012-.506,2.53H1.144l-.5-2.53H.423a.439.439,0,0,1,0-.878Z" transform="translate(0 -73.829)" fill="#fff" fill-rule="evenodd"/>
  </g>
</svg>
