<svg xmlns="http://www.w3.org/2000/svg" width="22.119" height="11.998" viewBox="0 0 22.119 11.998">
  <g id="noun_people_3234984" transform="translate(0 0)">
    <g id="Group_425" data-name="Group 425" transform="translate(15.371 1.969)">
      <path id="Path_870" data-name="Path 870" d="M704.391,368.146a2.446,2.446,0,1,1-2.446-2.446A2.44,2.44,0,0,1,704.391,368.146Z" transform="translate(-699.126 -365.332)" fill="#fff"/>
      <g id="Group_424" data-name="Group 424" transform="translate(0 0)">
        <path id="Path_871" data-name="Path 871" d="M689.412,353.815a2,2,0,0,1-.01.212l-.007.083c.007-.063-.012.07-.012.065a2.4,2.4,0,0,1-.11.4l-.03.075c.02-.048-.015.03-.02.04-.025.055-.055.108-.085.16a1.952,1.952,0,0,1-.2.293,2.626,2.626,0,0,1-.247.253.546.546,0,0,1-.058.048c-.09.078.03-.02-.028.023s-.112.08-.17.115a1.827,1.827,0,0,1-.645.262,2.245,2.245,0,0,1-.685.038c-.125-.01.035.008-.038,0-.032-.005-.065-.01-.1-.017q-.094-.019-.187-.045a1.934,1.934,0,0,1-.3-.108,2.62,2.62,0,0,1-.3-.165l-.078-.052c-.012-.008-.075-.058-.027-.02-.053-.043-.105-.088-.155-.135a1.935,1.935,0,0,1-.423-.553c-.012-.022-.025-.048-.037-.073,0,.005-.052-.115-.028-.057a1.286,1.286,0,0,1-.062-.173,2.567,2.567,0,0,1-.09-.373,2.322,2.322,0,0,1-.015-.358c0-.058.008-.115.01-.172,0-.015.007-.075,0,0,0-.035.01-.068.017-.1a2.291,2.291,0,0,1,.08-.31c.015-.048.033-.1.05-.14.037-.1-.033.065.015-.033.015-.03.027-.06.043-.09a2.615,2.615,0,0,1,.15-.255c.015-.022.033-.045.047-.068s.055-.072.01-.015c.035-.043.07-.085.105-.125a2.491,2.491,0,0,1,.235-.225l.05-.042c-.058.045,0,0,.015-.01.05-.035.1-.067.15-.1.085-.053.172-.1.26-.14s-.07.025.032-.015l.063-.023c.058-.02.115-.04.175-.055a1.9,1.9,0,0,1,.315-.065c-.073.01-.013,0,0,0l.1-.008c.058,0,.118-.005.175,0s.115,0,.175.008l.067.008c-.075-.008,0,0,.02,0a2.679,2.679,0,0,1,.345.082l.158.055c.1.038-.04-.02.017.007.035.015.07.033.105.05a2.42,2.42,0,0,1,.308.188l.052.038c-.065-.048.02.017.028.022.05.043.1.085.145.133s.075.078.113.118l.052.063.03.038c-.025-.033-.025-.033,0,0a2.7,2.7,0,0,1,.182.293c.028.052.055.108.08.163-.03-.068,0,0,.008.017.012.033.023.063.035.1a2.568,2.568,0,0,1,.093.358c0,.027.01.055.012.085-.01-.083,0,.03,0,.038.008.068.01.135.013.205a.375.375,0,1,0,.75,0,2.816,2.816,0,1,0-.808,1.978,2.845,2.845,0,0,0,.808-1.978.378.378,0,0,0-.375-.375A.382.382,0,0,0,689.412,353.815Z" transform="translate(-684.522 -351.002)" fill="#fff"/>
      </g>
    </g>
    <g id="Group_427" data-name="Group 427" transform="translate(14.607 6.853)">
      <path id="Path_872" data-name="Path 872" d="M675.754,564.673v.848a.364.364,0,0,1-.365.365H669a.4.4,0,0,0,.372-.4V564.1a3.55,3.55,0,0,0-.2-1.16,3.175,3.175,0,0,1,2.658-1.438h.745A3.17,3.17,0,0,1,675.754,564.673Z" transform="translate(-668.625 -561.12)" fill="#fff"/>
      <g id="Group_426" data-name="Group 426">
        <path id="Path_873" data-name="Path 873" d="M660.739,549.864c0,.268-.012.538,0,.8v.04c0,.017-.017-.018.007-.03,0,.005,0,.01,0,.015-.008.028,0,.023.012-.015,0,.01-.01.017-.015.028.03-.033.03-.033,0,0,.05-.052.015,0-.013.005l-.015.008q.06-.026,0-.008c.005-.013.048-.008.033-.008h-5.341c-.348,0-.7.013-1.048,0v.75a.789.789,0,0,0,.748-.775c.005-.123,0-.245,0-.368v-1.013a3.948,3.948,0,0,0-.21-1.265c-.012.1-.025.193-.037.29.02-.03.04-.06.062-.09s.028-.04.043-.06c0,0,.038-.047.015-.02l.05-.06c.028-.033.055-.065.085-.095a3.8,3.8,0,0,1,.343-.325c.058-.048.023-.02.01-.01l.045-.032c.03-.023.06-.043.09-.063q.1-.071.218-.135c.065-.035.13-.07.2-.1.037-.018.078-.037.118-.052-.053.022.048-.018.065-.025a3.314,3.314,0,0,1,.468-.133c.037-.007.075-.015.113-.02.007,0,.087-.013.045-.008s.025,0,.025,0c.083-.008.168-.015.25-.018.17-.005.338,0,.508,0s.34,0,.51.005c.04,0,.08,0,.123.01.015,0,.1.01.07.007l.07.01.117.023a3.012,3.012,0,0,1,.438.125c.032.012.063.023.093.035s-.008,0-.012-.005l.045.02c.07.032.14.065.208.1a3.366,3.366,0,0,1,.36.228l.04.03c-.005,0-.045-.035-.01-.007s.06.048.087.073c.055.045.105.095.158.142s.1.1.147.153l.065.075c.013.015.088.11.043.053a3.22,3.22,0,0,1,.258.4c.04.073.075.147.11.222,0,0,.022.055.008.015s.01.025.012.033c.015.037.028.072.04.11a3.3,3.3,0,0,1,.128.49c0,.018,0,.033.007.05s.01.077.005.035,0,.013,0,.017l.007.07c0,.09.005.182.005.278a.375.375,0,0,0,.75,0,3.552,3.552,0,0,0-3.586-3.551c-.255,0-.513,0-.768,0a3.546,3.546,0,0,0-2.776,1.415c-.113.15-.235.293-.185.5.035.145.09.285.12.43a3.027,3.027,0,0,1,.062.645v1.378a.162.162,0,0,1,0,.035c.005-.042,0-.042-.007,0,0-.01.007-.02.01-.03-.022.035-.022.037,0,0l-.022.023a.207.207,0,0,1,.025-.02c-.038.02-.038.023,0,0-.042.01-.042.013,0,.005a.375.375,0,1,0,0,.75c.3.01.6,0,.9,0h5.491a.753.753,0,0,0,.74-.74c.01-.283,0-.565,0-.848a.379.379,0,0,0-.375-.375A.384.384,0,0,0,660.739,549.864Z" transform="translate(-653.985 -546.311)" fill="#fff"/>
      </g>
    </g>
    <g id="Group_429" data-name="Group 429" transform="translate(7.718)">
      <circle id="Ellipse_137" data-name="Ellipse 137" cx="2.963" cy="2.963" r="2.963" transform="translate(0.375 0.374)" fill="#fff"/>
      <g id="Group_428" data-name="Group 428">
        <path id="Path_874" data-name="Path 874" d="M384.42,275.593q0,.105-.008.21c0,.04-.008.08-.01.12s0-.008,0-.015c0,.022-.008.045-.01.068a3.13,3.13,0,0,1-.1.428c-.02.063-.045.125-.067.188-.005.013-.03.065,0,0-.008.015-.013.03-.02.045-.018.035-.033.07-.05.105a2.828,2.828,0,0,1-.22.365l-.058.08c.038-.05-.007.01-.022.028-.048.06-.1.115-.153.17s-.093.092-.14.138l-.075.065c-.015.013-.11.088-.053.045a2.819,2.819,0,0,1-.358.233c-.057.032-.117.063-.178.09-.02.01-.09.04-.032.015-.04.018-.083.033-.125.048a2.721,2.721,0,0,1-.423.118c-.032.008-.067.013-.1.017s-.1.012-.037.005c-.08.007-.163.015-.243.017a3.417,3.417,0,0,1-.453-.017c.065.007-.012,0-.037-.005l-.1-.017c-.073-.015-.143-.032-.215-.05s-.14-.043-.208-.068c-.033-.013-.063-.023-.093-.035-.005,0-.055-.022-.017-.007s-.025-.013-.03-.015a3.424,3.424,0,0,1-.375-.208c-.06-.038-.118-.08-.175-.123.05.038-.01-.008-.028-.023l-.087-.075a3.067,3.067,0,0,1-.3-.305c-.013-.015-.078-.1-.033-.04a.928.928,0,0,1-.057-.08c-.04-.058-.08-.118-.117-.18s-.073-.122-.105-.188c-.015-.03-.03-.06-.043-.09s-.013-.03-.02-.045c-.025-.053.02.052,0,0a2.679,2.679,0,0,1-.132-.415q-.026-.109-.045-.218c0-.025-.012-.1,0-.037-.005-.04-.008-.08-.012-.12a2.75,2.75,0,0,1,0-.455c0-.035.007-.07.01-.1s0,.008,0,.015c0-.018.005-.035.008-.05.012-.077.027-.158.047-.233a3.346,3.346,0,0,1,.132-.415c.015-.04,0,.008,0,.013.008-.015.013-.03.02-.045.015-.03.027-.06.043-.09q.053-.105.113-.2c.035-.057.07-.112.108-.165.023-.033.045-.063.067-.092-.04.055.02-.023.033-.04a3.071,3.071,0,0,1,.3-.305l.075-.065c.012-.01.078-.065.052-.042l.055-.04.107-.075a3.411,3.411,0,0,1,.375-.208l.045-.02c-.005,0-.053.023-.013,0s.063-.025.093-.035c.073-.028.148-.05.223-.073s.13-.035.2-.047c.032-.008.068-.013.1-.02l.05-.008c.073-.012-.025,0,.02,0a3.068,3.068,0,0,1,.455-.015c.07,0,.138.01.208.015.045.005-.008,0-.015,0l.05.008c.04,0,.078.012.117.02a2.788,2.788,0,0,1,.423.118c.038.012.073.027.11.042l-.012,0,.045.02c.065.03.13.063.193.1a3.144,3.144,0,0,1,.358.233c-.055-.042.023.02.04.033s.05.042.075.065c.053.047.105.1.153.148s.1.105.143.158c.01.012.065.077.043.052s.008.01.01.015l.037.052a3.2,3.2,0,0,1,.22.365c.015.03.03.06.043.09s.018.04.027.06c0-.005-.022-.053,0-.013.027.068.053.135.075.205a2.8,2.8,0,0,1,.1.428c.005.025.013.1.005.038.005.04.008.08.013.12q.008.12.008.233a.375.375,0,1,0,.75,0,3.338,3.338,0,0,0-6.667-.245,3.339,3.339,0,0,0,.465,1.963,3.339,3.339,0,0,0,6.156-1.168,3.678,3.678,0,0,0,.048-.55.38.38,0,0,0-.375-.375A.385.385,0,0,0,384.42,275.593Z" transform="translate(-378.493 -272.256)" fill="#fff"/>
      </g>
    </g>
    <g id="Group_431" data-name="Group 431" transform="translate(1.105 1.969)">
      <path id="Path_875" data-name="Path 875" d="M133.794,368.146a2.447,2.447,0,1,1-2.448-2.446A2.441,2.441,0,0,1,133.794,368.146Z" transform="translate(-128.528 -365.332)" fill="#fff"/>
      <g id="Group_430" data-name="Group 430" transform="translate(0 0)">
        <path id="Path_876" data-name="Path 876" d="M118.912,353.815a2.016,2.016,0,0,1-.01.212l-.008.083c.008-.063-.013.07-.013.065a2.372,2.372,0,0,1-.11.4l-.03.075c.02-.048-.015.03-.02.04-.025.055-.055.108-.085.16a1.957,1.957,0,0,1-.2.293,2.634,2.634,0,0,1-.248.253.526.526,0,0,1-.058.048c-.09.078.03-.02-.028.023s-.113.08-.17.115a1.828,1.828,0,0,1-.645.262,2.245,2.245,0,0,1-.685.038c-.125-.01.035.008-.038,0-.033-.005-.065-.01-.1-.017q-.094-.019-.188-.045a1.932,1.932,0,0,1-.3-.108,2.621,2.621,0,0,1-.3-.165l-.078-.052c-.013-.008-.075-.058-.028-.02-.053-.043-.105-.088-.155-.135a1.937,1.937,0,0,1-.423-.553,2.144,2.144,0,0,1-.218-.673,2.287,2.287,0,0,1-.015-.358c0-.058.007-.115.01-.173,0-.015.007-.075,0,0,0-.035.01-.068.017-.1a2.257,2.257,0,0,1,.08-.31c.015-.048.033-.1.05-.14.038-.1-.033.065.015-.033.015-.03.027-.06.043-.09a2.607,2.607,0,0,1,.15-.255c.015-.023.033-.045.048-.068s.055-.072.01-.015c.035-.043.07-.085.105-.125a2.5,2.5,0,0,1,.235-.225l.05-.043c-.058.045,0,0,.015-.01.05-.035.1-.068.15-.1.085-.053.173-.1.26-.14s-.07.025.033-.015l.063-.022c.058-.02.115-.04.175-.055a1.912,1.912,0,0,1,.315-.065c-.073.01-.012,0,0,0l.1-.007c.058,0,.118-.005.175,0s.115,0,.175.008l.068.007c-.075-.007,0,0,.02,0a2.665,2.665,0,0,1,.345.083l.158.055c.1.038-.04-.02.017.008.035.015.07.033.105.05a2.416,2.416,0,0,1,.308.188l.053.038c-.065-.047.02.018.027.023.05.042.1.085.145.132s.075.077.113.118l.053.063.03.037c-.025-.032-.025-.032,0,0a2.724,2.724,0,0,1,.183.293c.027.053.055.108.08.163-.03-.068,0,0,.007.017s.022.063.035.1a2.585,2.585,0,0,1,.093.358c.005.028.01.055.013.085-.01-.083,0,.03,0,.038a1.334,1.334,0,0,1,.013.2.375.375,0,1,0,.75,0,2.816,2.816,0,1,0-.808,1.978,2.845,2.845,0,0,0,.808-1.978.378.378,0,0,0-.375-.375A.383.383,0,0,0,118.912,353.815Z" transform="translate(-114.022 -351.002)" fill="#fff"/>
      </g>
    </g>
    <g id="Group_433" data-name="Group 433" transform="translate(6.385 5.927)">
      <path id="Path_877" data-name="Path 877" d="M348.7,527.826v1.39a.4.4,0,0,1-.373.4h-7.852a.4.4,0,0,1-.373-.4v-1.39a3.489,3.489,0,0,1,.2-1.16,3.528,3.528,0,0,1,3.331-2.366h1.543a3.528,3.528,0,0,1,3.331,2.366A3.49,3.49,0,0,1,348.7,527.826Z" transform="translate(-339.727 -523.925)" fill="#fff"/>
      <g id="Group_432" data-name="Group 432" transform="translate(0 0)">
        <path id="Path_878" data-name="Path 878" d="M333.795,513.2v.915c0,.148,0,.3,0,.445v.03c0,.008-.008.063,0,.02s-.008.015-.01.015.008-.02.01-.03c-.005.01-.013.018-.018.028-.017-.005.058-.028.005-.013s.013.01.013-.008c0,0-.052.038-.015.01s-.017.012-.017,0,.055,0,.005,0c-.34-.013-.685,0-1.025,0h-6.464c-.1,0-.205,0-.305,0h-.027c.04,0,.017-.005.015,0l-.015,0c.01,0,.02.008.027.012s-.06-.025-.017-.007-.045-.015,0,0-.015.007-.008-.015c-.005.013.027.048,0,.013s0,.062,0-.02v-.03c0-.147,0-.3,0-.445,0-.305,0-.61,0-.915a3.172,3.172,0,0,1,.182-1.06c.012-.032.023-.068.038-.1s.018-.043.025-.065c0,.007-.02.048-.005.01.03-.07.063-.138.1-.205a3.493,3.493,0,0,1,.223-.372l.06-.085c.01-.015.078-.1.035-.048.048-.057.1-.115.145-.172a3.893,3.893,0,0,1,.308-.3c.025-.022.052-.045.08-.068s.08-.062.033-.027c.065-.048.13-.1.2-.14a3.778,3.778,0,0,1,.378-.215l.095-.045.048-.022c-.008,0-.05.02-.008,0,.077-.03.153-.06.233-.085a3.644,3.644,0,0,1,.433-.11c.035-.008.07-.013.108-.018.07-.012-.027,0,.045,0s.158-.015.237-.02.135-.005.2-.005h1.475c.068,0,.133,0,.2.005s.148.01.22.017l.055.007c-.008,0-.055-.007-.01,0s.1.015.142.025a3.213,3.213,0,0,1,.43.113c.067.022.132.047.2.073s-.022-.013.04.017l.11.053a3.376,3.376,0,0,1,.393.223c.058.038.115.077.17.12.035.025,0,0-.007-.005l.04.032c.033.025.063.05.093.078a3.456,3.456,0,0,1,.32.315l.135.157c-.037-.047.015.018.025.035.025.033.047.065.07.1a3.588,3.588,0,0,1,.23.388c.032.062.062.125.09.19.018.04,0,0,0-.01.007.018.012.033.02.05.015.037.03.078.042.115a3.1,3.1,0,0,1,.185,1.06.375.375,0,1,0,.75,0,3.9,3.9,0,0,0-3.911-3.9h-1.02a7.106,7.106,0,0,0-1.2.063,3.9,3.9,0,0,0-2.946,2.416,4.323,4.323,0,0,0-.27,1.643v1.12a.8.8,0,0,0,.81.828c.445,0,.89,0,1.335,0h6.372a.8.8,0,0,0,.83-.785c.01-.353,0-.708,0-1.063V513.2a.376.376,0,0,0-.753,0Z" transform="translate(-325.2 -509.297)" fill="#fff"/>
      </g>
    </g>
    <g id="Group_435" data-name="Group 435" transform="translate(0 6.85)">
      <path id="Path_879" data-name="Path 879" d="M91.654,565.689H85.265a.364.364,0,0,1-.365-.365v-.848a3.177,3.177,0,0,1,3.176-3.176h.745a3.174,3.174,0,0,1,2.658,1.438,3.488,3.488,0,0,0-.2,1.16v1.39A.4.4,0,0,0,91.654,565.689Z" transform="translate(-84.524 -560.922)" fill="#fff"/>
      <g id="Group_434" data-name="Group 434" transform="translate(0)">
        <path id="Path_880" data-name="Path 880" d="M76.982,550.591c-.645.025-1.3,0-1.94,0H70.736c-.035,0-.073,0-.108,0-.058.005-.01-.012,0,.008l-.015,0c-.028-.008-.022,0,.015.013,0,0-.075-.048,0,.007a.255.255,0,0,1-.045-.045c.055.07.01,0,.008,0l.015.03c0-.01,0-.02-.007-.032.035.01,0,.048.007.032v-.03c.008-.117,0-.237,0-.353,0-.24-.01-.483.01-.723,0-.023.018-.165.008-.09l.022-.135a2.982,2.982,0,0,1,.07-.3q.041-.135.09-.27c0-.01.03-.075.013-.033s.01-.022.015-.033c.022-.05.048-.1.073-.15.043-.082.09-.165.14-.243.022-.037.048-.073.073-.11l.038-.053c0-.005.07-.093.02-.028a3.087,3.087,0,0,1,.393-.415c.033-.03.065-.058.1-.085.007-.008.063-.05.028-.023l.04-.03c.08-.057.163-.113.248-.163a2.573,2.573,0,0,1,.233-.125.654.654,0,0,1,.06-.027s.1-.043.048-.02.022-.008.033-.012l.078-.03a3.673,3.673,0,0,1,.588-.15c.015,0,.073-.008,0,0l.068-.008c.045-.005.093-.008.138-.01.065,0,.128,0,.193,0h.693c.045,0,.09,0,.135,0l.155.008c.033,0,.065.005.1.01.068.005,0,0,.033.005a3.084,3.084,0,0,1,.635.165c.023.008.045.017.07.027l.013.005c.045.02.09.04.133.062a3.271,3.271,0,0,1,.288.163c.045.03.093.06.135.093l.06.042c.055.04-.065-.055.025.02s.165.143.243.22a2.653,2.653,0,0,1,.2.215c.015.018.03.037.045.058-.035-.045,0,0,.008.01l.105.15-.038-.29a4.751,4.751,0,0,0-.21,1.568c0,.355-.005.71,0,1.063a.791.791,0,0,0,.748.793.378.378,0,0,0,.375-.375.385.385,0,0,0-.375-.375l.033,0c-.043-.013-.043-.013,0,0a.1.1,0,0,1-.027-.017c.027.022.033.025.012.008l-.012-.013c.022.035.025.032,0,0,0,.01.007.02.01.03-.01-.037-.013-.043-.01-.015s0-.013,0-.028v-1.318a4.277,4.277,0,0,1,.025-.5,3.328,3.328,0,0,1,.1-.463,1.02,1.02,0,0,0,.068-.27.521.521,0,0,0-.135-.31,3.565,3.565,0,0,0-1.225-1.083,3.647,3.647,0,0,0-1.673-.42h-.735a3.549,3.549,0,0,0-3.391,2.471,3.875,3.875,0,0,0-.168,1.2v.5a1.635,1.635,0,0,0,.028.428.76.76,0,0,0,.775.543h6.329a.373.373,0,1,0,0-.745Z" transform="translate(-69.852 -546.2)" fill="#fff"/>
      </g>
    </g>
  </g>
</svg>
