<svg xmlns="http://www.w3.org/2000/svg" width="15.787" height="16" viewBox="0 0 15.787 16">
  <g id="Group_747" data-name="Group 747" transform="translate(-13 -12.5)">
    <path id="Path_970" data-name="Path 970" d="M69.693,16.98a2.339,2.339,0,0,0-1.92-2.3V12.927a.427.427,0,0,0-.853,0v1.749a2.342,2.342,0,0,0,0,4.608v8.789a.427.427,0,0,0,.853,0V19.284A2.339,2.339,0,0,0,69.693,16.98Zm-2.347,1.493A1.493,1.493,0,1,1,68.84,16.98,1.484,1.484,0,0,1,67.347,18.473Z" transform="translate(-40.907 0)" fill="#fff"/>
    <path id="Path_971" data-name="Path 971" d="M41.773,21.5V12.927a.427.427,0,0,0-.853,0V21.5a2.342,2.342,0,0,0,0,4.608v1.963a.427.427,0,0,0,.853,0V26.111a2.342,2.342,0,0,0,0-4.608Zm-.427,3.8a1.493,1.493,0,1,1,1.493-1.493A1.484,1.484,0,0,1,41.347,25.3Z" transform="translate(-20.453)" fill="#fff"/>
    <path id="Path_972" data-name="Path 972" d="M15.773,17.236V12.927a.427.427,0,1,0-.853,0v4.309a2.342,2.342,0,0,0,0,4.608v6.229a.427.427,0,1,0,.853,0V21.844a2.342,2.342,0,0,0,0-4.608Zm-.427,3.8A1.493,1.493,0,1,1,16.84,19.54,1.484,1.484,0,0,1,15.347,21.033Z" fill="#fff"/>
  </g>
</svg>
