<svg xmlns="http://www.w3.org/2000/svg" width="15" height="15" viewBox="0 0 15 15">
  <g id="Group_634" data-name="Group 634" transform="translate(-5.14 -5.14)">
    <path id="Path_943" data-name="Path 943" d="M19.785,18.07l-2.9-2.9a6.427,6.427,0,1,0-1.715,1.715l2.9,2.9a1.213,1.213,0,0,0,1.715-1.715Zm-8.219-2.215a4.291,4.291,0,1,1,4.289-4.29,4.291,4.291,0,0,1-4.289,4.29Z" transform="translate(0 0)" fill="#fff" fill-rule="evenodd"/>
  </g>
</svg>
